%YAML 1.1
%TAG !u! tag:unity3d.com,2011:
--- !u!74 &7400000
AnimationClip:
  m_ObjectHideFlags: 0
  m_CorrespondingSourceObject: {fileID: 0}
  m_PrefabInstance: {fileID: 0}
  m_PrefabAsset: {fileID: 0}
  m_Name: Dead_Cat
  serializedVersion: 6
  m_Legacy: 0
  m_Compressed: 0
  m_UseHighQualityCurve: 1
  m_RotationCurves: []
  m_CompressedRotationCurves: []
  m_EulerCurves: []
  m_PositionCurves: []
  m_ScaleCurves: []
  m_FloatCurves: []
  m_PPtrCurves:
  - curve:
    - time: 0
      value: {fileID: 21300000, guid: 1575c83c386b8c542994162ef95bbc72, type: 3}
    - time: 0.083333336
      value: {fileID: 21300000, guid: 5fe9ed2fc3df27c49836255a6485d97d, type: 3}
    - time: 0.16666667
      value: {fileID: 21300000, guid: 5f111a70f26e68d4eb442c10fe4eacb5, type: 3}
    - time: 0.25
      value: {fileID: 21300000, guid: 0c18f2cc56fd1e4459513e33af8e8228, type: 3}
    - time: 0.33333334
      value: {fileID: 21300000, guid: 84c6d30e57ed9d843a69c54d18cdb5a5, type: 3}
    - time: 0.41666666
      value: {fileID: 21300000, guid: efe6a6c5cab43014292a5ba865f3e189, type: 3}
    - time: 0.5
      value: {fileID: 21300000, guid: 759c990a9ec108540b557a350ad95274, type: 3}
    - time: 0.5833333
      value: {fileID: 21300000, guid: 97f51b697e4c6644ca43ba3b9a48465c, type: 3}
    - time: 0.6666667
      value: {fileID: 21300000, guid: 10ffb1e406977724c842b196b77652ad, type: 3}
    - time: 0.75
      value: {fileID: 21300000, guid: d52f5f3d72933f0459054b9316460c2d, type: 3}
    attribute: m_Sprite
    path: 
    classID: 212
    script: {fileID: 0}
  m_SampleRate: 12
  m_WrapMode: 0
  m_Bounds:
    m_Center: {x: 0, y: 0, z: 0}
    m_Extent: {x: 0, y: 0, z: 0}
  m_ClipBindingConstant:
    genericBindings:
    - serializedVersion: 2
      path: 0
      attribute: 0
      script: {fileID: 0}
      typeID: 212
      customType: 23
      isPPtrCurve: 1
    pptrCurveMapping:
    - {fileID: 21300000, guid: 1575c83c386b8c542994162ef95bbc72, type: 3}
    - {fileID: 21300000, guid: 5fe9ed2fc3df27c49836255a6485d97d, type: 3}
    - {fileID: 21300000, guid: 5f111a70f26e68d4eb442c10fe4eacb5, type: 3}
    - {fileID: 21300000, guid: 0c18f2cc56fd1e4459513e33af8e8228, type: 3}
    - {fileID: 21300000, guid: 84c6d30e57ed9d843a69c54d18cdb5a5, type: 3}
    - {fileID: 21300000, guid: efe6a6c5cab43014292a5ba865f3e189, type: 3}
    - {fileID: 21300000, guid: 759c990a9ec108540b557a350ad95274, type: 3}
    - {fileID: 21300000, guid: 97f51b697e4c6644ca43ba3b9a48465c, type: 3}
    - {fileID: 21300000, guid: 10ffb1e406977724c842b196b77652ad, type: 3}
    - {fileID: 21300000, guid: d52f5f3d72933f0459054b9316460c2d, type: 3}
  m_AnimationClipSettings:
    serializedVersion: 2
    m_AdditiveReferencePoseClip: {fileID: 0}
    m_AdditiveReferencePoseTime: 0
    m_StartTime: 0
    m_StopTime: 0.8333333
    m_OrientationOffsetY: 0
    m_Level: 0
    m_CycleOffset: 0
    m_HasAdditiveReferencePose: 0
    m_LoopTime: 0
    m_LoopBlend: 0
    m_LoopBlendOrientation: 0
    m_LoopBlendPositionY: 0
    m_LoopBlendPositionXZ: 0
    m_KeepOriginalOrientation: 0
    m_KeepOriginalPositionY: 1
    m_KeepOriginalPositionXZ: 0
    m_HeightFromFeet: 0
    m_Mirror: 0
  m_EditorCurves: []
  m_EulerEditorCurves: []
  m_HasGenericRootTransform: 0
  m_HasMotionFloatCurves: 0
  m_Events: []
