%YAML 1.1
%TAG !u! tag:unity3d.com,2011:
--- !u!74 &7400000
AnimationClip:
  m_ObjectHideFlags: 0
  m_CorrespondingSourceObject: {fileID: 0}
  m_PrefabInstance: {fileID: 0}
  m_PrefabAsset: {fileID: 0}
  m_Name: Idle_Cat_02
  serializedVersion: 6
  m_Legacy: 0
  m_Compressed: 0
  m_UseHighQualityCurve: 1
  m_RotationCurves: []
  m_CompressedRotationCurves: []
  m_EulerCurves: []
  m_PositionCurves: []
  m_ScaleCurves: []
  m_FloatCurves: []
  m_PPtrCurves:
  - curve:
    - time: 0
      value: {fileID: 21300000, guid: 884efc793a025784bb6c57863ca5623d, type: 3}
    - time: 0.083333336
      value: {fileID: 21300000, guid: 2feb47f8b95fd6d478f45693a8506a1e, type: 3}
    - time: 0.16666667
      value: {fileID: 21300000, guid: 14747f75bcaaf4c4083a33f4763329d7, type: 3}
    - time: 0.25
      value: {fileID: 21300000, guid: 501774dedb3658c4db37adb4436e17e3, type: 3}
    - time: 0.33333334
      value: {fileID: 21300000, guid: 46ee058912644d94a8795c5f4b43d655, type: 3}
    - time: 0.41666666
      value: {fileID: 21300000, guid: be9207e625ea85044882fd0d145b7584, type: 3}
    - time: 0.5
      value: {fileID: 21300000, guid: c8f5cc4aab2e9fb40acbcfbe462314ee, type: 3}
    - time: 0.5833333
      value: {fileID: 21300000, guid: f2768fb670992af4bbb227cabb05964b, type: 3}
    - time: 0.6666667
      value: {fileID: 21300000, guid: dd853540702e6344f8b4835ea641e313, type: 3}
    - time: 0.75
      value: {fileID: 21300000, guid: f3948bde8282595428fbc3cf5167dae4, type: 3}
    attribute: m_Sprite
    path: 
    classID: 212
    script: {fileID: 0}
  m_SampleRate: 12
  m_WrapMode: 0
  m_Bounds:
    m_Center: {x: 0, y: 0, z: 0}
    m_Extent: {x: 0, y: 0, z: 0}
  m_ClipBindingConstant:
    genericBindings:
    - serializedVersion: 2
      path: 0
      attribute: 0
      script: {fileID: 0}
      typeID: 212
      customType: 23
      isPPtrCurve: 1
    pptrCurveMapping:
    - {fileID: 21300000, guid: 884efc793a025784bb6c57863ca5623d, type: 3}
    - {fileID: 21300000, guid: 2feb47f8b95fd6d478f45693a8506a1e, type: 3}
    - {fileID: 21300000, guid: 14747f75bcaaf4c4083a33f4763329d7, type: 3}
    - {fileID: 21300000, guid: 501774dedb3658c4db37adb4436e17e3, type: 3}
    - {fileID: 21300000, guid: 46ee058912644d94a8795c5f4b43d655, type: 3}
    - {fileID: 21300000, guid: be9207e625ea85044882fd0d145b7584, type: 3}
    - {fileID: 21300000, guid: c8f5cc4aab2e9fb40acbcfbe462314ee, type: 3}
    - {fileID: 21300000, guid: f2768fb670992af4bbb227cabb05964b, type: 3}
    - {fileID: 21300000, guid: dd853540702e6344f8b4835ea641e313, type: 3}
    - {fileID: 21300000, guid: f3948bde8282595428fbc3cf5167dae4, type: 3}
  m_AnimationClipSettings:
    serializedVersion: 2
    m_AdditiveReferencePoseClip: {fileID: 0}
    m_AdditiveReferencePoseTime: 0
    m_StartTime: 0
    m_StopTime: 0.8333333
    m_OrientationOffsetY: 0
    m_Level: 0
    m_CycleOffset: 0
    m_HasAdditiveReferencePose: 0
    m_LoopTime: 1
    m_LoopBlend: 0
    m_LoopBlendOrientation: 0
    m_LoopBlendPositionY: 0
    m_LoopBlendPositionXZ: 0
    m_KeepOriginalOrientation: 0
    m_KeepOriginalPositionY: 1
    m_KeepOriginalPositionXZ: 0
    m_HeightFromFeet: 0
    m_Mirror: 0
  m_EditorCurves: []
  m_EulerEditorCurves: []
  m_HasGenericRootTransform: 0
  m_HasMotionFloatCurves: 0
  m_Events: []
